%YAML 1.1
%TAG !u! tag:unity3d.com,2011:
--- !u!114 &11400000
MonoBehaviour:
  m_ObjectHideFlags: 0
  m_CorrespondingSourceObject: {fileID: 0}
  m_PrefabInstance: {fileID: 0}
  m_PrefabAsset: {fileID: 0}
  m_GameObject: {fileID: 0}
  m_Enabled: 1
  m_EditorHideFlags: 0
  m_Script: {fileID: 11500000, guid: f6be73b74f49f934fa3c266fe1729044, type: 3}
  m_Name: 1_Michu
  m_EditorClassIdentifier: 
  Name: Michu Grattechien
  NeutralDialogImage: {fileID: 21300000, guid: 6c8ed03e2726cf7458a70bab62e426be, type: 3}
  HappyDialogImage: {fileID: 21300000, guid: 6c8ed03e2726cf7458a70bab62e426be, type: 3}
  AngryDialogImage: {fileID: 21300000, guid: 6c8ed03e2726cf7458a70bab62e426be, type: 3}
  LoreText:
  - Text: "Ma bonne Bathilde, comment vas-tu depuis le temps ? Tu as plaisante mine.
      Et je dois dire que ta brave m\xE8re, Dieu ait son \xE2me, serait bien heureuse
      de te savoir d\xE9sormais gu\xE9risseuse comme elle !"
    Voice:
      Guid:
        Data1: -1057666796
        Data2: 1313424645
        Data3: -180777541
        Data4: 1375696126
      Path: event:/VO/Visit_1/vo_v1_main_01_event
  - Text: "Sais-tu que j\u2019ai \xE9t\xE9 faire ton \xE9loge \xE0 travers le village
      pour qu\u2019on vienne demander tes services? Et ma foi, toute fourbue et \xE9chin\xE9e
      comme je suis, j\u2019ai moi-m\xEAme grand besoin de quelque soin."
    Voice:
      Guid:
        Data1: 1302812496
        Data2: 1107077921
        Data3: -419343469
        Data4: 201068126
      Path: event:/VO/Visit_1/vo_v1_main_02_event
  SymptomsText:
  - Text: "L\u2019hiver approchant,|#[douleurs articulations]mes articulations me
      font souffrir.|Cr\xE9vindiou, figure-toi que| mes genoux me r\xE9veillent la
      nuit !\r|Sais-tu, j\u2019ai souvent observ\xE9|ta m\xE8re quand nagu\xE8re|elle
      faisait|ses petits miracles.\r"
    Voice:
      Guid:
        Data1: -582777121
        Data2: 1088750363
        Data3: 1422856359
        Data4: -1210023915
      Path: event:/VO/Visit_1/vo_v1_main_03_event
  - Text: "#[plantes calmantes]Elle avait des plantes calmantes,| et d\u2019autres
      qui |#[inflammation]apaisaient les inflammations.|Elle en faisait une d\xE9coction|pour
      soulager les rhumatismes.|Aurais-tu, par bonheur,|de ces merveilles|dans ton
      jardin ?\r"
    Voice:
      Guid:
        Data1: 965207103
        Data2: 1241891706
        Data3: -1943695207
        Data4: -1687693493
      Path: event:/VO/Visit_1/vo_v1_main_04_event
  WaitingText:
    Text: Alors, dis-moi, tu t'en sors ?
    Voice:
      Guid:
        Data1: -2120874171
        Data2: 1113454777
        Data3: -508660577
        Data4: -1937442395
      Path: event:/VO/Visit_1/vo_v1_end_01_event
  RewardText:
    Text: "C\u2019est donc \xE7a ? Sacreblotte, ce me semble parfait ! Grand merci,
      mon petit. Tiens, un ch\xE2le bien chaud pour l\u2019hiver \xE0 venir.\n"
    Voice:
      Guid:
        Data1: 139092717
        Data2: 1322518907
        Data3: 798400424
        Data4: 1156726973
      Path: event:/VO/Visit_1/vo_v1_end_02_event
  CheckupBackgroundImage: {fileID: 0}
  CheckupColor: {r: 0.99607843, g: 0.84313726, b: 0.29803923, a: 1}
