%YAML 1.1
%TAG !u! tag:unity3d.com,2011:
--- !u!114 &11400000
MonoBehaviour:
  m_ObjectHideFlags: 0
  m_CorrespondingSourceObject: {fileID: 0}
  m_PrefabInstance: {fileID: 0}
  m_PrefabAsset: {fileID: 0}
  m_GameObject: {fileID: 0}
  m_Enabled: 1
  m_EditorHideFlags: 0
  m_Script: {fileID: 11500000, guid: 505890c9871fce64a9cd7ed64ff666bb, type: 3}
  m_Name: Centauree
  m_EditorClassIdentifier: 
  CommonName: "Centaur\xE9e"
  HerbariumImage: {fileID: 21300000, guid: 838cade3435a8624782331df6368a45f, type: 3}
  HerbariumModel: {fileID: 0}
  GardenModel: {fileID: 5576375770971839034, guid: 28bb71aee47e64e4a8307d62837298ee, type: 3}
  Effects:
  - {fileID: 11400000, guid: c673fb71d91547e438614fad5d96327d, type: 2}
  - {fileID: 11400000, guid: d8e82fc9dd40c62418007a46d91e96da, type: 2}
  - {fileID: 11400000, guid: 10434f1a1e715f245a4bdbb310efa768, type: 2}
  Type: 2
  HerbariumClickEvent:
    Guid:
      Data1: -388961841
      Data2: 1098502205
      Data3: 1308456373
      Data4: 848364379
    Path: event:/UI/HUD/Herbier/Click/ui_herbier_centauree_click_event
