%YAML 1.1
%TAG !u! tag:unity3d.com,2011:
--- !u!114 &11400000
MonoBehaviour:
  m_ObjectHideFlags: 0
  m_CorrespondingSourceObject: {fileID: 0}
  m_PrefabInstance: {fileID: 0}
  m_PrefabAsset: {fileID: 0}
  m_GameObject: {fileID: 0}
  m_Enabled: 1
  m_EditorHideFlags: 0
  m_Script: {fileID: 11500000, guid: 505890c9871fce64a9cd7ed64ff666bb, type: 3}
  m_Name: Lavande
  m_EditorClassIdentifier: 
  CommonName: Lavande
  HerbariumImage: {fileID: 21300000, guid: e9ab218f7d6ebcc4cad8f6eaaa73864a, type: 3}
  HerbariumModel: {fileID: 0}
  GardenModel: {fileID: 5576375770971839034, guid: 507a2c8baddca4e49aadb72b34eb2788, type: 3}
  Effects:
  - {fileID: 11400000, guid: 9804a1c2073ff8643baed595e051a987, type: 2}
  - {fileID: 11400000, guid: 2613be412d63ccd49845467bbbafb81b, type: 2}
  - {fileID: 11400000, guid: 72bd154ad87a59b459cb44ceabcf7422, type: 2}
  Type: 1
  HerbariumClickEvent:
    Guid:
      Data1: 1932194911
      Data2: 1298980533
      Data3: 2033620412
      Data4: 332060723
    Path: event:/UI/HUD/Herbier/Click/ui_herbier_lavande_click_event
