%YAML 1.1
%TAG !u! tag:unity3d.com,2011:
--- !u!114 &11400000
MonoBehaviour:
  m_ObjectHideFlags: 0
  m_CorrespondingSourceObject: {fileID: 0}
  m_PrefabInstance: {fileID: 0}
  m_PrefabAsset: {fileID: 0}
  m_GameObject: {fileID: 0}
  m_Enabled: 1
  m_EditorHideFlags: 0
  m_Script: {fileID: 11500000, guid: 505890c9871fce64a9cd7ed64ff666bb, type: 3}
  m_Name: Menthe
  m_EditorClassIdentifier: 
  CommonName: Menthe
  HerbariumImage: {fileID: 21300000, guid: 83f2baf2a1dc6b645bcbfbf8eb2d69a7, type: 3}
  HerbariumModel: {fileID: 0}
  GardenModel: {fileID: 5576375770971839034, guid: 819bd13041156d646a58487c8573baa0, type: 3}
  Effects:
  - {fileID: 11400000, guid: a2e510611f23b78438dc4d83680161f8, type: 2}
  - {fileID: 11400000, guid: c1b253111c3f7fe49b3dc1aeb6a0df19, type: 2}
  - {fileID: 11400000, guid: 10434f1a1e715f245a4bdbb310efa768, type: 2}
  Type: 0
  HerbariumClickEvent:
    Guid:
      Data1: 1507735983
      Data2: 1302915994
      Data3: 332421266
      Data4: 156843355
    Path: event:/UI/HUD/Herbier/Click/ui_herbier_menthe_click_event
