%YAML 1.1
%TAG !u! tag:unity3d.com,2011:
--- !u!114 &11400000
MonoBehaviour:
  m_ObjectHideFlags: 0
  m_CorrespondingSourceObject: {fileID: 0}
  m_PrefabInstance: {fileID: 0}
  m_PrefabAsset: {fileID: 0}
  m_GameObject: {fileID: 0}
  m_Enabled: 1
  m_EditorHideFlags: 0
  m_Script: {fileID: 11500000, guid: 505890c9871fce64a9cd7ed64ff666bb, type: 3}
  m_Name: Nigelle
  m_EditorClassIdentifier: 
  CommonName: Nigelle
  HerbariumImage: {fileID: 21300000, guid: 93e04c650445e9e4c9bf85b8568779c3, type: 3}
  HerbariumModel: {fileID: 0}
  GardenModel: {fileID: 5576375770971839034, guid: 6f1c28b0ace9a124e98a9a8c9d3188f9, type: 3}
  Effects:
  - {fileID: 11400000, guid: 37333560599de0e48bf0a06a54892dd3, type: 2}
  - {fileID: 11400000, guid: e598a72b4954df34dbf2517a93860a0a, type: 2}
  Type: 1
  HerbariumClickEvent:
    Guid:
      Data1: -1879590484
      Data2: 1236210875
      Data3: 351682695
      Data4: -218218764
    Path: event:/UI/HUD/Herbier/Click/ui_herbier_nigelle_click_event
