%YAML 1.1
%TAG !u! tag:unity3d.com,2011:
--- !u!114 &11400000
MonoBehaviour:
  m_ObjectHideFlags: 0
  m_CorrespondingSourceObject: {fileID: 0}
  m_PrefabInstance: {fileID: 0}
  m_PrefabAsset: {fileID: 0}
  m_GameObject: {fileID: 0}
  m_Enabled: 1
  m_EditorHideFlags: 0
  m_Script: {fileID: 11500000, guid: 505890c9871fce64a9cd7ed64ff666bb, type: 3}
  m_Name: Romarin
  m_EditorClassIdentifier: 
  CommonName: Romarin
  HerbariumImage: {fileID: 21300000, guid: a4625f7861f2a1149bb1e52208e3e242, type: 3}
  HerbariumModel: {fileID: 0}
  GardenModel: {fileID: 5576375770971839034, guid: da760f1dd91e0554cb22a997bc6ef854, type: 3}
  Effects:
  - {fileID: 11400000, guid: 48261dc291d02fc4abb6f7bdfbc01e95, type: 2}
  - {fileID: 11400000, guid: a66a1bb6f37276f49b5d3c328f1a6017, type: 2}
  - {fileID: 11400000, guid: a06892673de03114f8aab814a593889a, type: 2}
  Type: 1
  HerbariumClickEvent:
    Guid:
      Data1: 913740590
      Data2: 1223468669
      Data3: -1179964759
      Data4: 1492938903
    Path: event:/UI/HUD/Herbier/Click/ui_herbier_romarin_click_event
