%YAML 1.1
%TAG !u! tag:unity3d.com,2011:
--- !u!114 &11400000
MonoBehaviour:
  m_ObjectHideFlags: 0
  m_CorrespondingSourceObject: {fileID: 0}
  m_PrefabInstance: {fileID: 0}
  m_PrefabAsset: {fileID: 0}
  m_GameObject: {fileID: 0}
  m_Enabled: 1
  m_EditorHideFlags: 0
  m_Script: {fileID: 11500000, guid: 505890c9871fce64a9cd7ed64ff666bb, type: 3}
  m_Name: Sauge
  m_EditorClassIdentifier: 
  CommonName: Sauge
  HerbariumImage: {fileID: 21300000, guid: ced822da055c3414eb4bca926a561408, type: 3}
  HerbariumModel: {fileID: 0}
  GardenModel: {fileID: 5576375770971839034, guid: aa01736ded1df5a478aa0ec245eadb8b, type: 3}
  Effects:
  - {fileID: 11400000, guid: cfd9024c13922c4449f359dc47017711, type: 2}
  - {fileID: 11400000, guid: cc5a108392e286b4abd23f81aa168f92, type: 2}
  Type: 0
  HerbariumClickEvent:
    Guid:
      Data1: 1663894893
      Data2: 1162809235
      Data3: 1853796755
      Data4: 521127000
    Path: event:/UI/HUD/Herbier/Click/ui_herbier_sauge_click_event
