%YAML 1.1
%TAG !u! tag:unity3d.com,2011:
--- !u!114 &8582836016496341252
MonoBehaviour:
  m_ObjectHideFlags: 0
  m_CorrespondingSourceObject: {fileID: 0}
  m_PrefabInstance: {fileID: 0}
  m_PrefabAsset: {fileID: 0}
  m_GameObject: {fileID: 711214387619922438}
  m_Enabled: 1
  m_EditorHideFlags: 0
  m_Script: {fileID: 11500000, guid: 86710e43de46f6f4bac7c8e50813a599, type: 3}
  m_Name: 
  m_EditorClassIdentifier: 
  m_AspectMode: 3
  m_AspectRatio: 1
--- !u!114 &5612276087550500299
MonoBehaviour:
  m_ObjectHideFlags: 0
  m_CorrespondingSourceObject: {fileID: 0}
  m_PrefabInstance: {fileID: 0}
  m_PrefabAsset: {fileID: 0}
  m_GameObject: {fileID: 1766533825503545892}
  m_Enabled: 1
  m_EditorHideFlags: 0
  m_Script: {fileID: 11500000, guid: 86710e43de46f6f4bac7c8e50813a599, type: 3}
  m_Name: 
  m_EditorClassIdentifier: 
  m_AspectMode: 3
  m_AspectRatio: 1
--- !u!114 &3422200210394483099
MonoBehaviour:
  m_ObjectHideFlags: 0
  m_CorrespondingSourceObject: {fileID: 0}
  m_PrefabInstance: {fileID: 0}
  m_PrefabAsset: {fileID: 0}
  m_GameObject: {fileID: 1850671698439906101}
  m_Enabled: 1
  m_EditorHideFlags: 0
  m_Script: {fileID: 11500000, guid: 86710e43de46f6f4bac7c8e50813a599, type: 3}
  m_Name: 
  m_EditorClassIdentifier: 
  m_AspectMode: 3
  m_AspectRatio: 3.764706
--- !u!1001 &4595224025468381157
PrefabInstance:
  m_ObjectHideFlags: 0
  serializedVersion: 2
  m_Modification:
    m_TransformParent: {fileID: 0}
    m_Modifications:
    - target: {fileID: 1405515432126652305, guid: 6d08321c3237ba1459ac57b6c3c2fe94, type: 3}
      propertyPath: m_Pivot.x
      value: 0.5
      objectReference: {fileID: 0}
    - target: {fileID: 1405515432126652305, guid: 6d08321c3237ba1459ac57b6c3c2fe94, type: 3}
      propertyPath: m_Pivot.y
      value: 0
      objectReference: {fileID: 0}
    - target: {fileID: 1405515432126652305, guid: 6d08321c3237ba1459ac57b6c3c2fe94, type: 3}
      propertyPath: m_RootOrder
      value: 0
      objectReference: {fileID: 0}
    - target: {fileID: 1405515432126652305, guid: 6d08321c3237ba1459ac57b6c3c2fe94, type: 3}
      propertyPath: m_AnchorMax.x
      value: 0
      objectReference: {fileID: 0}
    - target: {fileID: 1405515432126652305, guid: 6d08321c3237ba1459ac57b6c3c2fe94, type: 3}
      propertyPath: m_AnchorMax.y
      value: 0
      objectReference: {fileID: 0}
    - target: {fileID: 1405515432126652305, guid: 6d08321c3237ba1459ac57b6c3c2fe94, type: 3}
      propertyPath: m_AnchorMin.x
      value: 0
      objectReference: {fileID: 0}
    - target: {fileID: 1405515432126652305, guid: 6d08321c3237ba1459ac57b6c3c2fe94, type: 3}
      propertyPath: m_AnchorMin.y
      value: 0
      objectReference: {fileID: 0}
    - target: {fileID: 1405515432126652305, guid: 6d08321c3237ba1459ac57b6c3c2fe94, type: 3}
      propertyPath: m_SizeDelta.x
      value: 0
      objectReference: {fileID: 0}
    - target: {fileID: 1405515432126652305, guid: 6d08321c3237ba1459ac57b6c3c2fe94, type: 3}
      propertyPath: m_SizeDelta.y
      value: 0
      objectReference: {fileID: 0}
    - target: {fileID: 1405515432126652305, guid: 6d08321c3237ba1459ac57b6c3c2fe94, type: 3}
      propertyPath: m_LocalPosition.x
      value: 0
      objectReference: {fileID: 0}
    - target: {fileID: 1405515432126652305, guid: 6d08321c3237ba1459ac57b6c3c2fe94, type: 3}
      propertyPath: m_LocalPosition.y
      value: 0
      objectReference: {fileID: 0}
    - target: {fileID: 1405515432126652305, guid: 6d08321c3237ba1459ac57b6c3c2fe94, type: 3}
      propertyPath: m_LocalPosition.z
      value: 0
      objectReference: {fileID: 0}
    - target: {fileID: 1405515432126652305, guid: 6d08321c3237ba1459ac57b6c3c2fe94, type: 3}
      propertyPath: m_LocalRotation.w
      value: 1
      objectReference: {fileID: 0}
    - target: {fileID: 1405515432126652305, guid: 6d08321c3237ba1459ac57b6c3c2fe94, type: 3}
      propertyPath: m_LocalRotation.x
      value: 0
      objectReference: {fileID: 0}
    - target: {fileID: 1405515432126652305, guid: 6d08321c3237ba1459ac57b6c3c2fe94, type: 3}
      propertyPath: m_LocalRotation.y
      value: 0
      objectReference: {fileID: 0}
    - target: {fileID: 1405515432126652305, guid: 6d08321c3237ba1459ac57b6c3c2fe94, type: 3}
      propertyPath: m_LocalRotation.z
      value: 0
      objectReference: {fileID: 0}
    - target: {fileID: 1405515432126652305, guid: 6d08321c3237ba1459ac57b6c3c2fe94, type: 3}
      propertyPath: m_AnchoredPosition.x
      value: 0
      objectReference: {fileID: 0}
    - target: {fileID: 1405515432126652305, guid: 6d08321c3237ba1459ac57b6c3c2fe94, type: 3}
      propertyPath: m_AnchoredPosition.y
      value: 0
      objectReference: {fileID: 0}
    - target: {fileID: 1405515432126652305, guid: 6d08321c3237ba1459ac57b6c3c2fe94, type: 3}
      propertyPath: m_LocalEulerAnglesHint.x
      value: 0
      objectReference: {fileID: 0}
    - target: {fileID: 1405515432126652305, guid: 6d08321c3237ba1459ac57b6c3c2fe94, type: 3}
      propertyPath: m_LocalEulerAnglesHint.y
      value: 0
      objectReference: {fileID: 0}
    - target: {fileID: 1405515432126652305, guid: 6d08321c3237ba1459ac57b6c3c2fe94, type: 3}
      propertyPath: m_LocalEulerAnglesHint.z
      value: 0
      objectReference: {fileID: 0}
    - target: {fileID: 1491674123217232834, guid: 6d08321c3237ba1459ac57b6c3c2fe94, type: 3}
      propertyPath: m_Sprite
      value: 
      objectReference: {fileID: 21300000, guid: b5d06fed34adaa94ab6c86edb4479cf8, type: 3}
    - target: {fileID: 2833488379100658416, guid: 6d08321c3237ba1459ac57b6c3c2fe94, type: 3}
      propertyPath: m_Pivot.y
      value: 0
      objectReference: {fileID: 0}
    - target: {fileID: 2833488379100658416, guid: 6d08321c3237ba1459ac57b6c3c2fe94, type: 3}
      propertyPath: m_AnchorMax.x
      value: 0
      objectReference: {fileID: 0}
    - target: {fileID: 2833488379100658416, guid: 6d08321c3237ba1459ac57b6c3c2fe94, type: 3}
      propertyPath: m_AnchorMax.y
      value: 0
      objectReference: {fileID: 0}
    - target: {fileID: 2833488379100658416, guid: 6d08321c3237ba1459ac57b6c3c2fe94, type: 3}
      propertyPath: m_AnchorMin.x
      value: 0
      objectReference: {fileID: 0}
    - target: {fileID: 2833488379100658416, guid: 6d08321c3237ba1459ac57b6c3c2fe94, type: 3}
      propertyPath: m_AnchorMin.y
      value: 0
      objectReference: {fileID: 0}
    - target: {fileID: 2833488379100658416, guid: 6d08321c3237ba1459ac57b6c3c2fe94, type: 3}
      propertyPath: m_SizeDelta.x
      value: 0
      objectReference: {fileID: 0}
    - target: {fileID: 2833488379100658416, guid: 6d08321c3237ba1459ac57b6c3c2fe94, type: 3}
      propertyPath: m_SizeDelta.y
      value: 0
      objectReference: {fileID: 0}
    - target: {fileID: 2833488379100658416, guid: 6d08321c3237ba1459ac57b6c3c2fe94, type: 3}
      propertyPath: m_AnchoredPosition.y
      value: 0
      objectReference: {fileID: 0}
    - target: {fileID: 3722052673253784003, guid: 6d08321c3237ba1459ac57b6c3c2fe94, type: 3}
      propertyPath: m_SizeDelta.x
      value: -55.899754
      objectReference: {fileID: 0}
    - target: {fileID: 3722052673253784003, guid: 6d08321c3237ba1459ac57b6c3c2fe94, type: 3}
      propertyPath: m_SizeDelta.y
      value: -63.99999
      objectReference: {fileID: 0}
    - target: {fileID: 3722052673253784003, guid: 6d08321c3237ba1459ac57b6c3c2fe94, type: 3}
      propertyPath: m_AnchoredPosition.x
      value: 0.049865723
      objectReference: {fileID: 0}
    - target: {fileID: 3722052673253784003, guid: 6d08321c3237ba1459ac57b6c3c2fe94, type: 3}
      propertyPath: m_AnchoredPosition.y
      value: -0.9999924
      objectReference: {fileID: 0}
    - target: {fileID: 3898778416548783587, guid: 6d08321c3237ba1459ac57b6c3c2fe94, type: 3}
      propertyPath: m_Name
      value: DialogBoxFinalCheckup
      objectReference: {fileID: 0}
    - target: {fileID: 4632642434681845970, guid: 6d08321c3237ba1459ac57b6c3c2fe94, type: 3}
      propertyPath: m_Sprite
      value: 
      objectReference: {fileID: 21300000, guid: 00ae38ab522cef14a83e318c50237c17, type: 3}
    - target: {fileID: 4632642434681845970, guid: 6d08321c3237ba1459ac57b6c3c2fe94, type: 3}
      propertyPath: m_PreserveAspect
      value: 1
      objectReference: {fileID: 0}
    - target: {fileID: 5164305383993969614, guid: 6d08321c3237ba1459ac57b6c3c2fe94, type: 3}
      propertyPath: _dots
      value: 
      objectReference: {fileID: 0}
    - target: {fileID: 5329287378451964050, guid: 6d08321c3237ba1459ac57b6c3c2fe94, type: 3}
      propertyPath: m_AnchorMax.y
      value: 1
      objectReference: {fileID: 0}
    - target: {fileID: 5329287378451964050, guid: 6d08321c3237ba1459ac57b6c3c2fe94, type: 3}
      propertyPath: m_AnchorMin.y
      value: 1
      objectReference: {fileID: 0}
    - target: {fileID: 5329287378451964050, guid: 6d08321c3237ba1459ac57b6c3c2fe94, type: 3}
      propertyPath: m_SizeDelta.y
      value: 87.796875
      objectReference: {fileID: 0}
    - target: {fileID: 5329287378451964050, guid: 6d08321c3237ba1459ac57b6c3c2fe94, type: 3}
      propertyPath: m_AnchoredPosition.x
      value: 25
      objectReference: {fileID: 0}
    - target: {fileID: 5329287378451964050, guid: 6d08321c3237ba1459ac57b6c3c2fe94, type: 3}
      propertyPath: m_AnchoredPosition.y
      value: -93.89844
      objectReference: {fileID: 0}
    - target: {fileID: 6449193082946549960, guid: 6d08321c3237ba1459ac57b6c3c2fe94, type: 3}
      propertyPath: m_IsActive
      value: 0
      objectReference: {fileID: 0}
    - target: {fileID: 7003235798808912768, guid: 6d08321c3237ba1459ac57b6c3c2fe94, type: 3}
      propertyPath: m_AnchorMax.x
      value: 0.967
      objectReference: {fileID: 0}
    - target: {fileID: 7003235798808912768, guid: 6d08321c3237ba1459ac57b6c3c2fe94, type: 3}
      propertyPath: m_AnchorMax.y
      value: 0.84
      objectReference: {fileID: 0}
    - target: {fileID: 7003235798808912768, guid: 6d08321c3237ba1459ac57b6c3c2fe94, type: 3}
      propertyPath: m_AnchorMin.x
      value: 0.033
      objectReference: {fileID: 0}
    - target: {fileID: 7003235798808912768, guid: 6d08321c3237ba1459ac57b6c3c2fe94, type: 3}
      propertyPath: m_AnchorMin.y
      value: 0.14
      objectReference: {fileID: 0}
    - target: {fileID: 7003235798808912768, guid: 6d08321c3237ba1459ac57b6c3c2fe94, type: 3}
      propertyPath: m_SizeDelta.x
      value: 0
      objectReference: {fileID: 0}
    - target: {fileID: 7003235798808912768, guid: 6d08321c3237ba1459ac57b6c3c2fe94, type: 3}
      propertyPath: m_SizeDelta.y
      value: 0
      objectReference: {fileID: 0}
    - target: {fileID: 7003235798808912768, guid: 6d08321c3237ba1459ac57b6c3c2fe94, type: 3}
      propertyPath: m_AnchoredPosition.x
      value: 0
      objectReference: {fileID: 0}
    - target: {fileID: 7003235798808912768, guid: 6d08321c3237ba1459ac57b6c3c2fe94, type: 3}
      propertyPath: m_AnchoredPosition.y
      value: 0
      objectReference: {fileID: 0}
    - target: {fileID: 7442856621020116469, guid: 6d08321c3237ba1459ac57b6c3c2fe94, type: 3}
      propertyPath: m_IsActive
      value: 0
      objectReference: {fileID: 0}
    - target: {fileID: 7616096632958590335, guid: 6d08321c3237ba1459ac57b6c3c2fe94, type: 3}
      propertyPath: m_AnchorMax.y
      value: 1
      objectReference: {fileID: 0}
    - target: {fileID: 7616096632958590335, guid: 6d08321c3237ba1459ac57b6c3c2fe94, type: 3}
      propertyPath: m_AnchorMin.y
      value: 1
      objectReference: {fileID: 0}
    - target: {fileID: 7616096632958590335, guid: 6d08321c3237ba1459ac57b6c3c2fe94, type: 3}
      propertyPath: m_SizeDelta.y
      value: 50
      objectReference: {fileID: 0}
    - target: {fileID: 7616096632958590335, guid: 6d08321c3237ba1459ac57b6c3c2fe94, type: 3}
      propertyPath: m_AnchoredPosition.x
      value: 25
      objectReference: {fileID: 0}
    - target: {fileID: 7616096632958590335, guid: 6d08321c3237ba1459ac57b6c3c2fe94, type: 3}
      propertyPath: m_AnchoredPosition.y
      value: -25
      objectReference: {fileID: 0}
    - target: {fileID: 7795659358598215460, guid: 6d08321c3237ba1459ac57b6c3c2fe94, type: 3}
      propertyPath: m_text
      value: 
      objectReference: {fileID: 0}
    - target: {fileID: 8642152292886022596, guid: 6d08321c3237ba1459ac57b6c3c2fe94, type: 3}
      propertyPath: m_AnchorMax.y
      value: 1
      objectReference: {fileID: 0}
    - target: {fileID: 8642152292886022596, guid: 6d08321c3237ba1459ac57b6c3c2fe94, type: 3}
      propertyPath: m_AnchorMin.y
      value: 1
      objectReference: {fileID: 0}
    - target: {fileID: 8642152292886022596, guid: 6d08321c3237ba1459ac57b6c3c2fe94, type: 3}
      propertyPath: m_SizeDelta.y
      value: 50
      objectReference: {fileID: 0}
    - target: {fileID: 8642152292886022596, guid: 6d08321c3237ba1459ac57b6c3c2fe94, type: 3}
      propertyPath: m_AnchoredPosition.x
      value: 25
      objectReference: {fileID: 0}
    - target: {fileID: 8642152292886022596, guid: 6d08321c3237ba1459ac57b6c3c2fe94, type: 3}
      propertyPath: m_AnchoredPosition.y
      value: -162.79688
      objectReference: {fileID: 0}
    - target: {fileID: 8842100751532722675, guid: 6d08321c3237ba1459ac57b6c3c2fe94, type: 3}
      propertyPath: m_Pivot.y
      value: 0.6
      objectReference: {fileID: 0}
    - target: {fileID: 8842100751532722675, guid: 6d08321c3237ba1459ac57b6c3c2fe94, type: 3}
      propertyPath: m_AnchorMax.x
      value: 0
      objectReference: {fileID: 0}
    - target: {fileID: 8842100751532722675, guid: 6d08321c3237ba1459ac57b6c3c2fe94, type: 3}
      propertyPath: m_AnchorMax.y
      value: 0
      objectReference: {fileID: 0}
    - target: {fileID: 8842100751532722675, guid: 6d08321c3237ba1459ac57b6c3c2fe94, type: 3}
      propertyPath: m_AnchorMin.x
      value: 0
      objectReference: {fileID: 0}
    - target: {fileID: 8842100751532722675, guid: 6d08321c3237ba1459ac57b6c3c2fe94, type: 3}
      propertyPath: m_AnchorMin.y
      value: 0
      objectReference: {fileID: 0}
    - target: {fileID: 8842100751532722675, guid: 6d08321c3237ba1459ac57b6c3c2fe94, type: 3}
      propertyPath: m_SizeDelta.x
      value: 0
      objectReference: {fileID: 0}
    - target: {fileID: 8842100751532722675, guid: 6d08321c3237ba1459ac57b6c3c2fe94, type: 3}
      propertyPath: m_SizeDelta.y
      value: 0
      objectReference: {fileID: 0}
    - target: {fileID: 8842100751532722675, guid: 6d08321c3237ba1459ac57b6c3c2fe94, type: 3}
      propertyPath: m_LocalScale.x
      value: 0.6
      objectReference: {fileID: 0}
    - target: {fileID: 8842100751532722675, guid: 6d08321c3237ba1459ac57b6c3c2fe94, type: 3}
      propertyPath: m_LocalScale.y
      value: 0.6
      objectReference: {fileID: 0}
    - target: {fileID: 8842100751532722675, guid: 6d08321c3237ba1459ac57b6c3c2fe94, type: 3}
      propertyPath: m_LocalScale.z
      value: 0.6
      objectReference: {fileID: 0}
    - target: {fileID: 8842100751532722675, guid: 6d08321c3237ba1459ac57b6c3c2fe94, type: 3}
      propertyPath: m_AnchoredPosition.x
      value: 0
      objectReference: {fileID: 0}
    - target: {fileID: 8842100751532722675, guid: 6d08321c3237ba1459ac57b6c3c2fe94, type: 3}
      propertyPath: m_AnchoredPosition.y
      value: 0
      objectReference: {fileID: 0}
    m_RemovedComponents: []
  m_SourcePrefab: {fileID: 100100000, guid: 6d08321c3237ba1459ac57b6c3c2fe94, type: 3}
--- !u!1 &711214387619922438 stripped
GameObject:
  m_CorrespondingSourceObject: {fileID: 3898778416548783587, guid: 6d08321c3237ba1459ac57b6c3c2fe94, type: 3}
  m_PrefabInstance: {fileID: 4595224025468381157}
  m_PrefabAsset: {fileID: 0}
--- !u!1 &1766533825503545892 stripped
GameObject:
  m_CorrespondingSourceObject: {fileID: 2830088779849264577, guid: 6d08321c3237ba1459ac57b6c3c2fe94, type: 3}
  m_PrefabInstance: {fileID: 4595224025468381157}
  m_PrefabAsset: {fileID: 0}
--- !u!1 &1850671698439906101 stripped
GameObject:
  m_CorrespondingSourceObject: {fileID: 2768425130991486160, guid: 6d08321c3237ba1459ac57b6c3c2fe94, type: 3}
  m_PrefabInstance: {fileID: 4595224025468381157}
  m_PrefabAsset: {fileID: 0}
