%YAML 1.1
%TAG !u! tag:unity3d.com,2011:
--- !u!114 &11400000
MonoBehaviour:
  m_ObjectHideFlags: 0
  m_CorrespondingSourceObject: {fileID: 0}
  m_PrefabInstance: {fileID: 0}
  m_PrefabAsset: {fileID: 0}
  m_GameObject: {fileID: 0}
  m_Enabled: 1
  m_EditorHideFlags: 0
  m_Script: {fileID: 11500000, guid: 3f86d75888795e64090c31bc2cf98a39, type: 3}
  m_Name: mission_3
  m_EditorClassIdentifier: 
  EnableTutorial: 0
  Visitor: {fileID: 11400000, guid: 28f2fa69558671544898b1f293c820bf, type: 2}
  RequiredEffects:
  - {fileID: 11400000, guid: 963d34a0f89df224ab06ef1690aa51c9, type: 2}
  - {fileID: 11400000, guid: 4f7c8e246f0ce5b4fb65b4a50ef35ea5, type: 2}
  - {fileID: 11400000, guid: cc5a108392e286b4abd23f81aa168f92, type: 2}
  BadEffects: []
  RemedyImage: {fileID: 21300000, guid: 286b4d49185ecd54c9d312143e8326a9, type: 3}
  RemedyName: Infusion
  ReputationBased: 0
  GoodRemedyText:
  - "Les clients de la Margot, inquiets de la voir tant tousser et cracher, recommandent
    \xE0 l\u2019unanimit\xE9 une pri\xE8re doubl\xE9e d\u2019une bonne saign\xE9e.
    Rien de tel pour se d\xE9barrasser des humeurs r\xE9calcitrantes.\r"
  - "Votre infusion <i>$</i>, consomm\xE9e en secret par Margot Beauchats, apaise
    ses intenses douleurs \xE0 la gorge. Apr\xE8s quelques semaines, il se dit dans
    les venelles de Beauchats que vous gu\xE9rissez les maux pour lesquels l\u2019eau
    b\xE9nite ne peut rien."
  BadRemedyText:
  - "Les clients de la Margot, inquiets de la voir tant tousser et cracher, recommandent
    \xE0 l\u2019unanimit\xE9 une pri\xE8re doubl\xE9e d\u2019une bonne saign\xE9e.
    Rien de tel pour se d\xE9barrasser des humeurs r\xE9calcitrantes."
  - "Votre infusion <i>$</i>, consomm\xE9e en secret par Margot Beauchats, n\u2019emp\xEAche
    pas son \xE9tat de se d\xE9t\xE9riorer. Tendez l\u2019oreille et vous entendrez
    les venelles de Beauchats vous accuser d\u2019avoir empoisonn\xE9 l\u2019une
    des leurs."
  PlantsAvailable:
  - {fileID: 11400000, guid: c8860c3db1dbb7a4298ab4c9d96d1e36, type: 2}
  - {fileID: 11400000, guid: 2ccd730592ac89a4d9143f5ff147491e, type: 2}
  - {fileID: 11400000, guid: c69a26590fbd3dc47b960ba39f6b324a, type: 2}
  - {fileID: 11400000, guid: fac68b0eeccf1b14daaefd37db0fc654, type: 2}
  - {fileID: 11400000, guid: ffd984c2b79834e4db97ddcfb4555e81, type: 2}
  - {fileID: 11400000, guid: 9a3d91e6fdbc37248bbdbaa6cfb5d24e, type: 2}
  RewardImage: {fileID: 21300000, guid: 66666230266ca6746b467d320d6b98a4, type: 3}
  RewardModel: {fileID: 7259329197956258666, guid: 458c3c27c98531049b7ab93371a8c598, type: 3}
